…
Data Analyses

For my data analysis I will be breaking this section up by question, taking a look at each one individually.

Question 1

New Zealand was the second most efficient country in 2014 (relative to itself), but was it always that efficient? Scaled to 1961 = 1.0, the amount of arable land needed to produce the fixed amount of crop was 0.0326. That is over a 96% percent decrease in 54 years. For this problem I am going to visualize the relative efficiency.

 arable_land %>%
  filter(Entity == "New Zealand") 

## # A tibble: 54 x 4
##    Entity     Code   Year `Arable land needed to produce a fixed quantity of cr…
##    <chr>      <chr> <dbl>                                                  <dbl>
##  1 New Zeala… NZL    1961                                                  1    
##  2 New Zeala… NZL    1962                                                  0.932
##  3 New Zeala… NZL    1963                                                  0.863
##  4 New Zeala… NZL    1964                                                  0.767
##  5 New Zeala… NZL    1965                                                  0.780
##  6 New Zeala… NZL    1966                                                  0.793
##  7 New Zeala… NZL    1967                                                  0.786
##  8 New Zeala… NZL    1968                                                  0.661
##  9 New Zeala… NZL    1969                                                  0.608
## 10 New Zeala… NZL    1970                                                  0.637
## # … with 44 more rows
…
Clearly, Qatar (in purple) had the worst farming efficiency by a significant amount. It is so significant that in order to capture it within the graph the y axis scale increases from (0,8) to (0,100). Due to the massive increase in the y-axis, the trends of the other countries have been blurred together. Too see the numbers, the following table shows the overall maximum amount of arable land need to produced a fixed quantity of crops across all the data.

arable_land %>%
  arrange(desc(`Arable land needed to produce a fixed quantity of crops ((1.0 = 1961))`))

## # A tibble: 11,280 x 4
##    Entity          Code   Year `Arable land needed to produce a fixed quantity …
##    <chr>           <chr> <dbl>                                             <dbl>
##  1 Qatar           QAT    1974                                             93.2 
##  2 Qatar           QAT    1975                                             84.3 
##  3 Qatar           QAT    1973                                             52.1 
##  4 Qatar           QAT    1976                                             47.8 
##  5 Sao Tome and P… STP    2008                                              7.17
##  6 Sao Tome and P… STP    2011                                              7.07
##  7 Sao Tome and P… STP    2009                                              7.04
##  8 Sao Tome and P… STP    2012                                              6.96
##  9 Sao Tome and P… STP    2007                                              6.71
## 10 Sao Tome and P… STP    2004                                              6.66
## # … with 11,270 more rows

By far the largest amounts of arable land needed to produce a fixed quantity of crop belongs to Qatar, specifically in the early to mid 1970’s.

arable_land %>%
  filter(Entity == "Qatar") 

## # A tibble: 54 x 4
##    Entity Code   Year `Arable land needed to produce a fixed quantity of crops …
##    <chr>  <chr> <dbl>                                                      <dbl>
##  1 Qatar  QAT    1961                                                      1    
##  2 Qatar  QAT    1962                                                      0.744
##  3 Qatar  QAT    1963                                                      0.635
##  4 Qatar  QAT    1964                                                      0.554
##  5 Qatar  QAT    1965                                                      0.492
##  6 Qatar  QAT    1966                                                      0.442
##  7 Qatar  QAT    1967                                                      0.401
##  8 Qatar  QAT    1968                                                      0.367
##  9 Qatar  QAT    1969                                                      0.339
## 10 Qatar  QAT    1970                                                      0.326
## # … with 44 more rows
…
